==> Toriel
* This is it.../%%                                                                         gml_Object_obj_torieltrigger7_Create_0.gml.lsp
* I think you should&  play upstairs&  instead./%%                                         gml_Object_obj_torieltrigger8_Step_0.gml.lsp
* It is dangerous&  to play here./%%                                                       gml_Object_obj_torieltrigger8_Step_0.gml.lsp
* It is drafty here.&* You will catch&  a cold./%%                                         gml_Object_obj_torieltrigger8_Step_0.gml.lsp
* It is dusty here.&* You will catch&  a cough./%%                                         gml_Object_obj_torieltrigger8_Step_0.gml.lsp
* There is nothing&  to see here./%%                                                       gml_Object_obj_torieltrigger8_Step_0.gml.lsp
* Do you want to&  read a book?/%%                                                         gml_Object_obj_torieltrigger8_Step_0.gml.lsp
\\E7* I do not like&  the game you&  are playing./%%                                       gml_Object_obj_torieltrigger8_Step_0.gml.lsp
\\E0* Why not go for&  a walk in the&  yard?/%%                                            gml_Object_obj_torieltrigger8_Step_0.gml.lsp
* Really now./%%                                                                           gml_Object_obj_torieltrigger8_Step_0.gml.lsp
\\E4* .../%%                                                                               gml_Object_obj_torieltrigger8_Step_0.gml.lsp
* Hey^1, do not go down&  here./                                                           gml_Object_obj_torieltrigger8_Step_0.gml.lsp
* I have something&  to show you&  upstairs./%%                                            gml_Object_obj_torieltrigger8_Step_0.gml.lsp
\\E2* Sans^1, did I tell you&  about the time Frisk&  flirted with me...?/                 gml_Object_obj_sans_friendc_Alarm_0.gml.lsp
\\E8* And then asked to&  call me \"mother?\"/                                             gml_Object_obj_sans_friendc_Alarm_0.gml.lsp
\\E0* I felt so embarrassed&  for them./                                                   gml_Object_obj_sans_friendc_Alarm_0.gml.lsp
\\E0* Oh^1, do I ever!/                                                                    gml_Object_obj_sans_friendc_Alarm_0.gml.lsp
\\E1* But, I think that&  story is one of the&  most unbelievable./                        gml_Object_obj_sans_friendc_Alarm_0.gml.lsp
\\E0* It is hard to think&  anyone would want to&  flirt with me./                         gml_Object_obj_sans_friendc_Alarm_0.gml.lsp
\\E1* Well^1, it was not&  RIGHT after./                                                   gml_Object_obj_sans_friendc_Alarm_0.gml.lsp
\\E0* It took a couple&  minutes./                                                         gml_Object_obj_sans_friendc_Alarm_0.gml.lsp
\\E0* Oh^1, I should bake it&  for everyone sometime!/                                     gml_Object_obj_sans_friendc_Alarm_0.gml.lsp
\\E0* Certainly^1!&* It would be fun to&  cook together!/                                  gml_Object_obj_sans_friendc_Alarm_0.gml.lsp
* You want to leave&  so badly?/                                                           gml_Object_obj_torieltrigger12_Step_0.gml.lsp
\\E6* Hmph./                                                                               gml_Object_obj_torieltrigger12_Step_0.gml.lsp
* You are just like&  the others./                                                         gml_Object_obj_torieltrigger12_Step_0.gml.lsp
\\E7* There is only one&  solution to this./                                               gml_Object_obj_torieltrigger12_Step_0.gml.lsp
* Prove yourself.../                                                                       gml_Object_obj_torieltrigger12_Step_0.gml.lsp
* Prove to me you&  are strong enough&  to survive./%%                                     gml_Object_obj_torieltrigger12_Step_0.gml.lsp
* Prove to me you&  are strong enough&  to survive!/                                       gml_Object_obj_torieltrigger12_Step_0.gml.lsp
\\E6* ... wait./                                                                           gml_Object_obj_torieltrigger12_Step_0.gml.lsp
* ... why are you looking&  at me like that?/                                              gml_Object_obj_torieltrigger12_Step_0.gml.lsp
* Like you have seen&  a ghost./                                                           gml_Object_obj_torieltrigger12_Step_0.gml.lsp
\\E7* Do you know something&  that I do not?/                                              gml_Object_obj_torieltrigger12_Step_0.gml.lsp
* No...&* That is impossible./%%                                                           gml_Object_obj_torieltrigger12_Step_0.gml.lsp
* Prove to me that you&  are.../                                                           gml_Object_obj_torieltrigger12_Step_0.gml.lsp
\\E1* Hey^1, let me finish%%                                                               gml_Object_obj_torieltrigger12_Step_0.gml.lsp
* Already?/                                                                                gml_Object_obj_torieltrigger12_Step_0.gml.lsp
* What will it take&  for you to learn&  your lesson?/%%                                   gml_Object_obj_torieltrigger12_Step_0.gml.lsp
* Oh^1!&* You are awake^1!&* Thank goodness!/                                              gml_Object_obj_friendc_event_Draw_0.gml.lsp
* Errr..^1.&* How about we give&  them space^1, first?/                                    gml_Object_obj_friendc_event_Draw_0.gml.lsp
\\E2* They must be very&  exhausted./                                                      gml_Object_obj_friendc_event_Draw_0.gml.lsp
\\E8* Though^1, from what^1,&  I am not certain./                                          gml_Object_obj_friendc_event_Draw_0.gml.lsp
\\E1* Frisk..^1.&* We do not remember&  exactly what happened./                            gml_Object_obj_friendc_event_Draw_0.gml.lsp
\\E1* There was a flower..^1.&* And then^1, everything&  went white./                      gml_Object_obj_friendc_event_Draw_0.gml.lsp
\\E0* But now the barrier&  is gone./                                                      gml_Object_obj_friendc_event_Draw_0.gml.lsp
* When you are ready^1,&  we will all return&  to the surface./                            gml_Object_obj_friendc_event_Draw_0.gml.lsp
* It seems the door to&  the east will lead&  us there now./                               gml_Object_obj_friendc_event_Draw_0.gml.lsp
\\E2* But before then.../                                                                  gml_Object_obj_friendc_event_Draw_0.gml.lsp
\\E0* Perhaps you might&  want to take a&  walk?/                                          gml_Object_obj_friendc_event_Draw_0.gml.lsp
* You can say goodbye&  to all of your&  wonderful friends./                               gml_Object_obj_friendc_event_Draw_0.gml.lsp
* Do as you wish^1.&* We will all wait&  for you here./%%                                  gml_Object_obj_friendc_event_Draw_0.gml.lsp
\\E0* Oh^1, may I enter&  the trash as well?/                                              gml_Script_SCR_TEXT.gml.lsp
\\E1* On second thought^1,&  do not put me&  in the trash./                                gml_Script_SCR_TEXT.gml.lsp
\\E0* Yes^1, it is beautiful^1,&  is it not?/                                              gml_Script_SCR_TEXT.gml.lsp
\\E1* But we should really&  think about what comes&  next./                               gml_Script_SCR_TEXT.gml.lsp
\\E0* Who the hell is Sans?/                                                               gml_Object_obj_alphys_friendc_Alarm_0.gml.lsp
\\E8* .../                                                                                 gml_Object_obj_alphys_friendc_Alarm_0.gml.lsp
\\E0* Who the HECK is Sans?/                                                               gml_Object_obj_alphys_friendc_Alarm_0.gml.lsp
* Oh dear^1, that took&  longer than I&  thought it would./%%                              gml_Object_obj_torieltrigger5_Collision_1570.gml.lsp
* No no no^1!/                                                                             gml_Object_obj_readable_switch1_Alarm_0.gml.lsp
\\E0* You want to press the&  other switch./                                               gml_Object_obj_readable_switch1_Alarm_0.gml.lsp
\\E1* I even labelled it for&  you.../%%                                                   gml_Object_obj_readable_switch1_Alarm_0.gml.lsp
* It seems that is not&  the correct switch./%%                                            gml_Object_obj_readable_switch1_Alarm_0.gml.lsp
\\E2* That is right./                                                                      gml_Object_obj_torieltrigger12_Alarm_2.gml.lsp
* Go upstairs./%%                                                                          gml_Object_obj_torieltrigger12_Alarm_2.gml.lsp
\\E2* If you truly wish to&  leave the RUINS.../                                           gml_Object_obj_torieltrigger12_Alarm_2.gml.lsp
* I will not stop you./                                                                    gml_Object_obj_torieltrigger12_Alarm_2.gml.lsp
\\E2* However^1, when you&  leave.../                                                      gml_Object_obj_torieltrigger12_Alarm_2.gml.lsp
\\E1* Please do not come&  back./                                                          gml_Object_obj_torieltrigger12_Alarm_2.gml.lsp
\\E2* I hope you understand./%%                                                            gml_Object_obj_torieltrigger12_Alarm_2.gml.lsp
* Worry not^1, Papyrus^1.&* We are texting for&  a good reason./                           gml_Object_obj_toriel_friendc_Alarm_0.gml.lsp
* Sans^1, please do&  not say that./                                                       gml_Object_obj_toriel_friendc_Alarm_0.gml.lsp
* You are not a dork./                                                                     gml_Object_obj_toriel_friendc_Alarm_0.gml.lsp
\\E0* You are more of&  a bonehead!/                                                       gml_Object_obj_toriel_friendc_Alarm_0.gml.lsp
* You wish to know how&  to return \"home,\"&  do you not?/                                gml_Object_obj_torieltrigger9_Step_0.gml.lsp
* Ahead of us lies the&  end of the RUINS./                                                gml_Object_obj_torieltrigger9_Step_0.gml.lsp
* A one-way exit to the&  rest of the underground./                                        gml_Object_obj_torieltrigger9_Step_0.gml.lsp
* I am going to destroy&  it./                                                             gml_Object_obj_torieltrigger9_Step_0.gml.lsp
* No one will ever&  be able to leave&  again./                                            gml_Object_obj_torieltrigger9_Step_0.gml.lsp
* Now be a good child&  and go upstairs./%%                                                gml_Object_obj_torieltrigger9_Step_0.gml.lsp
\\E1* Hello..^1.&* Are you all right?/                                                     gml_Object_obj_floweytrigger_Alarm_2.gml.lsp
* You must be so lost&  and confused.../                                                   gml_Object_obj_floweytrigger_Alarm_2.gml.lsp
\\E2* Ah, do not be&  afraid^1, my child./                                                 gml_Object_obj_floweytrigger_Alarm_2.gml.lsp
\\W* I am \\BTORIEL\\W,&  caretaker of the&  \\RRUINS\\W./                                 gml_Object_obj_floweytrigger_Alarm_2.gml.lsp
* I pass through here&  every day to see if&  anyone has fallen down./                     gml_Object_obj_floweytrigger_Alarm_2.gml.lsp
* You are the first&  human to come here&  in a long time./                                gml_Object_obj_floweytrigger_Alarm_2.gml.lsp
* I will do my best&  to protect you during&  your time here./                             gml_Object_obj_floweytrigger_Alarm_2.gml.lsp
* Come^1!&* I shall guide you&  through the catacombs./%%                                  gml_Object_obj_floweytrigger_Alarm_2.gml.lsp
* Do you smell that^1?/                                                                    gml_Object_obj_torieltrigger6_Create_0.gml.lsp
* Surprise!/                                                                               gml_Object_obj_torieltrigger6_Create_0.gml.lsp
* It is a butterscotch-&  cinnamon pie./                                                   gml_Object_obj_torieltrigger6_Create_0.gml.lsp
* I thought we might&  celebrate your&  arrival./                                          gml_Object_obj_torieltrigger6_Create_0.gml.lsp
* I want you to have&  a nice time living&  here./                                         gml_Object_obj_torieltrigger6_Create_0.gml.lsp
* So I will hold off&  on snail pie for&  tonight./                                        gml_Object_obj_torieltrigger6_Create_0.gml.lsp
* Here^1, I have another&  surprise for you./%%                                            gml_Object_obj_torieltrigger6_Create_0.gml.lsp
* Do you smell that^1?/                                                                    gml_Object_obj_torieltrigger6_Create_0.gml.lsp
\\E1* Er^1, I assume that&  expression means you&  do./                                    gml_Object_obj_torieltrigger6_Create_0.gml.lsp
\\E0* S..^1. surprise!/                                                                    gml_Object_obj_torieltrigger6_Create_0.gml.lsp
* I have baked a snail&  pie./                                                             gml_Object_obj_torieltrigger6_Create_0.gml.lsp
* I thought we might&  celebrate your&  arrival./                                          gml_Object_obj_torieltrigger6_Create_0.gml.lsp
* I want you to have&  a nice time living&  here./                                         gml_Object_obj_torieltrigger6_Create_0.gml.lsp
\\E1* So I.../                                                                             gml_Object_obj_torieltrigger6_Create_0.gml.lsp
\\E0* Here^1, I have another&  surprise for you./%%                                        gml_Object_obj_torieltrigger6_Create_0.gml.lsp
\\E1NYEH!&WHAT DO YOU&THINK OF MY&SECRET STYLE!?!/*                                        gml_Object_obj_papdate_Step_0.gml.lsp
                              &   I love it       I hate it&                               gml_Object_obj_papdate_Step_0.gml.lsp
\\E6NO!!!/                                                                                 gml_Object_obj_papdate_Step_0.gml.lsp
A GENUINE&COMPLIMENT...!!!/%%                                                              gml_Object_obj_papdate_Step_0.gml.lsp
YOUR HONESTY...^1!&IT SHOWS HOW&MUCH YOU REALLY&CARE!!!/%%                                 gml_Object_obj_papdate_Step_0.gml.lsp
\\E3HOWEVER.../                                                                            gml_Object_obj_papdate_Step_0.gml.lsp
\\XY\\E0OU DON'T TRULY&UNDERSTAND THE\\R &HIDDEN POWER\\X OF&THIS OUTFIT!!!/               gml_Object_obj_papdate_Step_0.gml.lsp
\\E3THEREFORE.../%%                                                                        gml_Object_obj_papdate_Step_0.gml.lsp
\\E1WHAT YOU JUST&SAID IS INVALID!!!/                                                      gml_Object_obj_papdate_Step_0.gml.lsp
THIS DATE WON'T&ESCALATE ANY&FURTHER!!!/                                                   gml_Object_obj_papdate_Step_0.gml.lsp
THIS HANG-OUT&WON'T ESCALATE&ANY FURTHER!/                                                 gml_Object_obj_papdate_Step_0.gml.lsp
\\X.\\E7.. UNLESS&YOU FIND \\RMY&SECRET\\X!!/                                              gml_Object_obj_papdate_Step_0.gml.lsp
BUT THAT WON'T&HAPPEN!!/%%                                                                 gml_Object_obj_papdate_Step_0.gml.lsp
* (Move and inspect with [Z].)                                                             gml_Object_obj_papdate_Step_0.gml.lsp
\\E3MY HAT...?/                                                                            gml_Object_obj_papdate_Step_0.gml.lsp
\\E8MY HAT./                                                                               gml_Object_obj_papdate_Step_0.gml.lsp
\\E0MY HAT!/                                                                               gml_Object_obj_papdate_Step_0.gml.lsp
NYEH HEH HEH!/%%                                                                           gml_Object_obj_papdate_Step_0.gml.lsp
W-WELL THEN..^1.&YOU FOUND MY&SECRET!/                                                     gml_Object_obj_papdate_Step_0.gml.lsp
I SUPPOSE I HAVE&NO CHOICE!/                                                               gml_Object_obj_papdate_Step_0.gml.lsp
IT'S A PRESENT.../                                                                         gml_Object_obj_papdate_Step_0.gml.lsp
A PRESENT J-JUST&FOR YOU!!!/                                                               gml_Object_obj_papdate_Step_0.gml.lsp
GO AHEAD^1!&OPEN IT!/*                                                                     gml_Object_obj_papdate_Step_0.gml.lsp
                              &   Open it         Don't    &                               gml_Object_obj_papdate_Step_0.gml.lsp
\\E2YOU CAN'T EVEN&BRING YOURSELF TO&HARM MY DELICATE&WRAPPING??/                          gml_Object_obj_papdate_Step_0.gml.lsp
\\E7N-NO..^1.&THAT TECHNIQUE!/                                                             gml_Object_obj_papdate_Step_0.gml.lsp
\\E6IT'S TOO STRONG!/                                                                      gml_Object_obj_papdate_Step_0.gml.lsp
\\E7COUNTERATTACK^1!&I'LL OPEN THE&PRESENT MYSELF!!/%%                                     gml_Object_obj_papdate_Step_0.gml.lsp
\\E0DO YOU KNOW WHAT&THIS IS?/*                                                            gml_Object_obj_papdate_Step_0.gml.lsp
                              &   Of course       No idea  &                               gml_Object_obj_papdate_Step_0.gml.lsp
\\E0\"SPAGHETTI.\"/                                                                        gml_Object_obj_papdate_Step_0.gml.lsp
\\E3THAT'S WHAT&YOU'RE THINKING^1,&ISN'T IT?/                                              gml_Object_obj_papdate_Step_0.gml.lsp
\\E0RIGHT!/                                                                                gml_Object_obj_papdate_Step_0.gml.lsp
\\E1BUT OH-SO WRONG!/%%                                                                    gml_Object_obj_papdate_Step_0.gml.lsp
\\E0NYEH HEH HEH^1!&THAT'S RIGHT./                                                         gml_Object_obj_papdate_Step_0.gml.lsp
YOU HAVE NO IDEA!/                                                                         gml_Object_obj_papdate_Step_0.gml.lsp
\\E3THOUGH THIS&APPEARS TO BE&SPAGHETTI.../%%                                              gml_Object_obj_papdate_Step_0.gml.lsp
\\E1THIS AIN'T ANY&PLAIN OL' PASTA!/                                                       gml_Object_obj_papdate_Step_0.gml.lsp
\\E0THIS IS AN&ARTISAN'S WORK!/                                                            gml_Object_obj_papdate_Step_0.gml.lsp
\\E3SILKEN SPAGHETTI^1,&FINELY AGED IN&AN OAKEN CASK.../                                   gml_Object_obj_papdate_Step_0.gml.lsp
\\E0THEN COOKED BY&ME^1, MASTER CHEF&PAPYRUS!/                                             gml_Object_obj_papdate_Step_0.gml.lsp
\\E1HUMAN!!^1!&IT'S TIME TO&END THIS!!/                                                    gml_Object_obj_papdate_Step_0.gml.lsp
THERE'S NO WAY&THIS CAN GO&ANY FURTHER!/                                                   gml_Object_obj_papdate_Step_0.gml.lsp
EAT THIS^1!&MY ULTIMATE&TECHNIQUE!!!/*                                                     gml_Object_obj_papdate_Step_0.gml.lsp
                              &   Eat it          Refuse   &                               gml_Object_obj_papdate_Step_0.gml.lsp
* (You take a small bite.)/                                                                gml_Object_obj_papdate_Step_0.gml.lsp
* (Your face reflexively&  scrunches up.)/                                                 gml_Object_obj_papdate_Step_0.gml.lsp
* (The taste is indescribable...)/%%                                                       gml_Object_obj_papdate_Step_0.gml.lsp
\\E0WHAT A PASSIONATE&EXPRESSION!!!/                                                       gml_Object_obj_papdate_Step_0.gml.lsp
\\E3YOU MUST REALLY&LOVE MY COOKING!/                                                      gml_Object_obj_papdate_Step_0.gml.lsp
\\E2AND BY EXTENSION^1,&ME!!!/                                                             gml_Object_obj_papdate_Step_0.gml.lsp
\\E6MAYBE EVEN MORE&THAN I DO!!!/%%                                                        gml_Object_obj_papdate_Step_0.gml.lsp
\\E3YOU MEAN.../                                                                           gml_Object_obj_papdate_Step_0.gml.lsp
\\E2YOU'RE LETTING ME&HAVE IT INSTEAD?/                                                    gml_Object_obj_papdate_Step_0.gml.lsp
\\E2BECAUSE YOU KNOW&HOW MUCH I LOVE&PASTA.../                                             gml_Object_obj_papdate_Step_0.gml.lsp
\\E6IMPOSSIBLE!^1!&TAKING MY PRESENT&AND TURNING IT&AROUND ON ME!/%%                       gml_Object_obj_papdate_Step_0.gml.lsp
AUGH!!^5!%%                                                                                gml_Object_obj_papdate_Step_0.gml.lsp
URRRGH!!^5!%%                                                                              gml_Object_obj_papdate_Step_0.gml.lsp
NOOOOOOOO!!^4!%%                                                                           gml_Object_obj_papdate_Step_0.gml.lsp
HUMAN^1.&IT'S CLEAR NOW./                                                                  gml_Object_obj_papdate_Step_0.gml.lsp
YOU'RE MADLY IN&LOVE WITH ME./                                                             gml_Object_obj_papdate_Step_0.gml.lsp
EVERYTHING YOU DO^1.&EVERYTHING&YOU SAY./                                                  gml_Object_obj_papdate_Step_0.gml.lsp
IT'S ALL BEEN&FOR MY SAKE./                                                                gml_Object_obj_papdate_Step_0.gml.lsp
HUMAN^1. I WANT&YOU TO BE&HAPPY^1, TOO./                                                   gml_Object_obj_papdate_Step_0.gml.lsp
IT'S TIME FOR ME&TO EXPRESS MY&FEELINGS./                                                  gml_Object_obj_papdate_Step_0.gml.lsp
IT'S TIME THAT&I TOLD YOU./                                                                gml_Object_obj_papdate_Step_0.gml.lsp
I^1, PAPYRUS.../%%                                                                         gml_Object_obj_papdate_Step_0.gml.lsp
HUMAN^1.&IT'S CLEAR NOW./                                                                  gml_Object_obj_papdate_Step_0.gml.lsp
YOU'RE COMPLETELY&OBSESSED WITH ME./                                                       gml_Object_obj_papdate_Step_0.gml.lsp
EVERYTHING YOU DO^1.&EVERYTHING&YOU SAY./                                                  gml_Object_obj_papdate_Step_0.gml.lsp
IT'S ALL BEEN&FOR MY SAKE./                                                                gml_Object_obj_papdate_Step_0.gml.lsp
HUMAN^1. I WANT&YOU TO BE&HAPPY^1,TOO./                                                    gml_Object_obj_papdate_Step_0.gml.lsp
IT'S TIME FOR ME&TO EXPRESS MY&FEELINGS./                                                  gml_Object_obj_papdate_Step_0.gml.lsp
IT'S TIME THAT&I TOLD YOU./                                                                gml_Object_obj_papdate_Step_0.gml.lsp
\\E8I^1, PAPYRUS.../%%                                                                     gml_Object_obj_papdate_Step_0.gml.lsp
I.../                                                                                      gml_Object_obj_papdate_Step_0.gml.lsp
UM.../                                                                                     gml_Object_obj_papdate_Step_0.gml.lsp
\\E4BOY^1, IS IT HOT&IN HERE^1, OR IS&IT JUST ME??/                                        gml_Object_obj_papdate_Step_0.gml.lsp
\\E4.../                                                                                   gml_Object_obj_papdate_Step_0.gml.lsp
\\E5OH^1, SHOOT./                                                                          gml_Object_obj_papdate_Step_0.gml.lsp
HUMAN^1, I.../                                                                             gml_Object_obj_papdate_Step_0.gml.lsp
I'M SORRY./                                                                                gml_Object_obj_papdate_Step_0.gml.lsp
I DON'T LIKE YOU&THE WAY YOU&LIKE ME./                                                     gml_Object_obj_papdate_Step_0.gml.lsp
\\E4ROMANTICALLY^1,&I MEAN./                                                               gml_Object_obj_papdate_Step_0.gml.lsp
\\E6I MEAN^1, I TRIED&VERY HARD TO!/                                                       gml_Object_obj_papdate_Step_0.gml.lsp
\\E8I THOUGHT THAT&BECAUSE YOU&FLIRTED WITH ME.../                                         gml_Object_obj_papdate_Step_0.gml.lsp
THAT I WAS&SUPPOSED&TO GO ON A&DATE WITH YOU./                                             gml_Object_obj_papdate_Step_0.gml.lsp
\\E0THEN^1, ON THE DATE^1,&FEELINGS WOULD&BLOSSOM FORTH!!!/                                gml_Object_obj_papdate_Step_0.gml.lsp
\\E2I WOULD BE ABLE&TO MATCH YOUR&PASSION FOR ME!/                                         gml_Object_obj_papdate_Step_0.gml.lsp
\\E4BUT ALAS..^1.&I^1, THE GREAT&PAPYRUS.../                                               gml_Object_obj_papdate_Step_0.gml.lsp
\\E5HAVE FAILED./                                                                          gml_Object_obj_papdate_Step_0.gml.lsp
I FEEL JUST THE&SAME AS BEFORE./                                                           gml_Object_obj_papdate_Step_0.gml.lsp
AND INSTEAD^1, BY&DATING YOU.../                                                           gml_Object_obj_papdate_Step_0.gml.lsp
I HAVE ONLY DRAWN&YOU DEEPER.../                                                           gml_Object_obj_papdate_Step_0.gml.lsp
\\E6INTO YOUR INTENSE&LOVE FOR ME!/                                                        gml_Object_obj_papdate_Step_0.gml.lsp
\\E5A DARK PRISON OF&PASSION^1, WITH NO&ESCAPE./                                           gml_Object_obj_papdate_Step_0.gml.lsp
HOW COULD I HAVE&DONE THIS TO MY&DEAR FRIEND...?/                                          gml_Object_obj_papdate_Step_0.gml.lsp
.../                                                                                       gml_Object_obj_papdate_Step_0.gml.lsp
\\E6NO^1! WAIT^1!&THAT'S WRONG!/                                                           gml_Object_obj_papdate_Step_0.gml.lsp
I CAN'T FAIL AT&ANYTHING!!!/                                                               gml_Object_obj_papdate_Step_0.gml.lsp
\\E1HUMAN!!^1!&I'LL HELP YOU&THROUGH THESE&TRYING TIMES!!!/                                gml_Object_obj_papdate_Step_0.gml.lsp
\\E0I'LL KEEP BEING&YOUR COOL&FRIEND.../                                                   gml_Object_obj_papdate_Step_0.gml.lsp
\\E8AND ACT LIKE THIS&ALL NEVER&HAPPENED./                                                 gml_Object_obj_papdate_Step_0.gml.lsp
\\E0AFTER ALL^1, YOU&ARE VERY GREAT./                                                      gml_Object_obj_papdate_Step_0.gml.lsp
\\E5IT WOULD BE&TRAGIC TO LOSE&YOUR FRIENDSHIP./                                           gml_Object_obj_papdate_Step_0.gml.lsp
\\E0SO PLEASE..../                                                                         gml_Object_obj_papdate_Step_0.gml.lsp
\\E5DON'T CRY BECAUSE&I WON'T KISS YOU./                                                   gml_Object_obj_papdate_Step_0.gml.lsp
\\E4BECAUSE^1, I DON'T&EVEN HAVE LIPS./                                                    gml_Object_obj_papdate_Step_0.gml.lsp
\\E0AND HEY^1, SOMEDAY^1,&YOU'LL FIND&SOMEONE AS&GREAT AS ME./                             gml_Object_obj_papdate_Step_0.gml.lsp
\\E8WELL, NO^1.&THAT'S NOT TRUE./                                                          gml_Object_obj_papdate_Step_0.gml.lsp
\\E0BUT I'LL HELP YOU&SETTLE FOR&SECOND BEST!!!/                                           gml_Object_obj_papdate_Step_0.gml.lsp
NYEH HEH HEH&HEH HEH!!!/%%                                                                 gml_Object_obj_papdate_Step_0.gml.lsp
\\E8HMM.../                                                                                gml_Object_obj_papdate_Step_0.gml.lsp
\\E0WELL^1, I'M FLATTERED&YOU CARE SO MUCH./                                               gml_Object_obj_papdate_Step_0.gml.lsp
\\E4BUT MAYBE COOL&IT A LITTLE BIT...?/                                                    gml_Object_obj_papdate_Step_0.gml.lsp
\\E0YOU ARE A VERY&NICE PERSON./                                                           gml_Object_obj_papdate_Step_0.gml.lsp
I'M GLAD WE'RE&FRIENDS./                                                                   gml_Object_obj_papdate_Step_0.gml.lsp
\\E8BUT^1, I THINK YOU&CAN REACH YOUR&MAX POTENTIAL,,,/                                    gml_Object_obj_papdate_Step_0.gml.lsp
\\E0IF YOU LIVE MORE&FOR YOUR OWN SAKE^1,&RATHER THAN JUST&FOR MINE./                      gml_Object_obj_papdate_Step_0.gml.lsp
\\E8HMMM.../                                                                               gml_Object_obj_papdate_Step_0.gml.lsp
\\E0HEY^1, I KNOW THE&SOLUTION!!!/                                                         gml_Object_obj_papdate_Step_0.gml.lsp
YOU SHOULD HANG&OUT WITH MY BOSS^1,&UNDYNE!!!/                                             gml_Object_obj_papdate_Step_0.gml.lsp
I THINK IF YOU&SPREAD YOUR FRIEND-&ENERGY OUT MORE.../                                     gml_Object_obj_papdate_Step_0.gml.lsp
YOU'LL HAVE A MORE&HEALTHY LIFESTYLE./                                                     gml_Object_obj_papdate_Step_0.gml.lsp
YEAH!!^1!&LET'S BE FRIENDS&WITH UNDYNE!!!/                                                 gml_Object_obj_papdate_Step_0.gml.lsp
NYEH HEH HEH&HEH HEH!!!/%%                                                                 gml_Object_obj_papdate_Step_0.gml.lsp
OH^1, AND IF YOU&EVER NEED TO&REACH ME.../                                                 gml_Object_obj_papdate_Step_0.gml.lsp
\\XHERE'S MY \\RPHONE&NUMBER\\X./                                                          gml_Object_obj_papdate_Step_0.gml.lsp
YOU CAN CALL&ME ANY TIME!/                                                                 gml_Object_obj_papdate_Step_0.gml.lsp
\\E4PLATONICALLY./                                                                         gml_Object_obj_papdate_Step_0.gml.lsp
\\E0WELL^1, GOTTA GO^1!&NYEH HEH HEH!/%%                                                   gml_Object_obj_papdate_Step_0.gml.lsp
* Every human that falls&  down here meets&  the same fate./                               gml_Object_obj_torieltrigger10_Step_0.gml.lsp
* I have seen it&  again and again./                                                       gml_Object_obj_torieltrigger10_Step_0.gml.lsp
* They come./                                                                              gml_Object_obj_torieltrigger10_Step_0.gml.lsp
* They leave./                                                                             gml_Object_obj_torieltrigger10_Step_0.gml.lsp
* They die./                                                                               gml_Object_obj_torieltrigger10_Step_0.gml.lsp
* You naive child..^1.&* If you leave the&  RUINS.../                                      gml_Object_obj_torieltrigger10_Step_0.gml.lsp
\\W* They..^1.&* \\RASGORE\\W..^1.&* Will kill you./                                       gml_Object_obj_torieltrigger10_Step_0.gml.lsp
* I am only protecting&  you^1, do you understand?/                                        gml_Object_obj_torieltrigger10_Step_0.gml.lsp
* ... go to your room./%%                                                                  gml_Object_obj_torieltrigger10_Step_0.gml.lsp
* Do not try to stop me./                                                                  gml_Object_obj_torieltrigger11_Step_0.gml.lsp
* This is your final&  warning./%%                                                         gml_Object_obj_torieltrigger11_Step_0.gml.lsp
\\E1* Hmmm..^1. Flying sounds&  a little dangerous./                                       gml_Object_obj_papyrus_friendc_Alarm_0.gml.lsp
* .../                                                                                     gml_Object_obj_outsideworld_event_Draw_0.gml.lsp
* It seems that everyone&  is quite eager to&  set off./%%                                 gml_Object_obj_outsideworld_event_Draw_0.gml.lsp
* What?/                                                                                   gml_Object_obj_outsideworld_event_Draw_0.gml.lsp
\\E1* Frisk.../                                                                            gml_Object_obj_outsideworld_event_Draw_0.gml.lsp
\\E0* You really are a&  funny child./                                                     gml_Object_obj_outsideworld_event_Draw_0.gml.lsp
\\E1* If you had said that&  earlier^1, none of this&  would have happened./               gml_Object_obj_outsideworld_event_Draw_0.gml.lsp
\\E0* It is a good thing&  you took so long to&  change your mind./                        gml_Object_obj_outsideworld_event_Draw_0.gml.lsp
* Hee hee hee./                                                                            gml_Object_obj_outsideworld_event_Draw_0.gml.lsp
* Well..^1.&* I suppose./                                                                  gml_Object_obj_outsideworld_event_Draw_0.gml.lsp
* If you really do&  not have any other&  place to go.../                                  gml_Object_obj_outsideworld_event_Draw_0.gml.lsp
* I will do my best to&  take care of you^1, for&  as long as you need./                   gml_Object_obj_outsideworld_event_Draw_0.gml.lsp
* All right?/                                                                              gml_Object_obj_outsideworld_event_Draw_0.gml.lsp
* Now^1, come along./%%                                                                    gml_Object_obj_outsideworld_event_Draw_0.gml.lsp
* Everyone is waiting&  for us!/%%                                                         gml_Object_obj_outsideworld_event_Draw_0.gml.lsp
\\E1* Ah./                                                                                 gml_Object_obj_outsideworld_event_Draw_0.gml.lsp
\\E0* ... I see./                                                                          gml_Object_obj_outsideworld_event_Draw_0.gml.lsp
\\E1* .../                                                                                 gml_Object_obj_outsideworld_event_Draw_0.gml.lsp
\\E0* Well^1, I hope that&  I am not keeping&  you./%%                                     gml_Object_obj_outsideworld_event_Draw_0.gml.lsp
* Frisk./                                                                                  gml_Object_obj_outsideworld_event_Draw_0.gml.lsp
* \"See you around.\"/%%                                                                   gml_Object_obj_outsideworld_event_Draw_0.gml.lsp
 Hey!^1!& There you are!!/                                                                 gml_Object_obj_adate_Step_0.gml.lsp
\\F2 I^1, uh^1, realized^1,& if you deliver that&  thing.../                               gml_Object_obj_adate_Step_0.gml.lsp
\\F3 It might be a bad& idea./                                                             gml_Object_obj_adate_Step_0.gml.lsp
\\F4 So I'm gonna do& it!!^1!& Give it to me!!!/                                           gml_Object_obj_adate_Step_0.gml.lsp
\\F3 Huh!^1?& You don't have it!?/                                                         gml_Object_obj_adate_Step_0.gml.lsp
\\F4 Ngggaaahhh!!/                                                                         gml_Object_obj_adate_Step_0.gml.lsp
 Have you at least& seen her!?/*                                                           gml_Object_obj_adate_Step_0.gml.lsp
                              &   Yeah            Nope     &                               gml_Object_obj_adate_Step_0.gml.lsp
 No???/                                                                                    gml_Object_obj_adate_Step_0.gml.lsp
 But she wasn't& at home.../                                                               gml_Object_obj_adate_Step_0.gml.lsp
\\F3 Where the heck& could she be!?/%%                                                     gml_Object_obj_adate_Step_0.gml.lsp
\\E2Oh my god.../                                                                          gml_Object_obj_adate_Step_0.gml.lsp
\\E6W... well^1, I guess&it's obvious^1, huh?/                                             gml_Object_obj_adate_Step_0.gml.lsp
\\E7I...^1 uh..^1.&I really like her./                                                     gml_Object_obj_adate_Step_0.gml.lsp
\\E9I mean^1, more than&I like other people!/                                              gml_Object_obj_adate_Step_0.gml.lsp
\\E7I'm sorry./                                                                            gml_Object_obj_adate_Step_0.gml.lsp
\\E6I j-just figured^1,&y-you know.../                                                     gml_Object_obj_adate_Step_0.gml.lsp
\\E7It'd be f-fun to&go on like^1, a cute^1,&kind of.../                                   gml_Object_obj_adate_Step_0.gml.lsp
\\E6P\\M3retend date with you^1?&T-to make you feel&better?/                               gml_Object_obj_adate_Step_0.gml.lsp
\\E7.../                                                                                   gml_Object_obj_adate_Step_0.gml.lsp
\\E6Well^1, it sounds even&worse when I put it&like that./                                 gml_Object_obj_adate_Step_0.gml.lsp
\\E8I\\M0'm sorry^1.&I messed up again./                                                   gml_Object_obj_adate_Step_0.gml.lsp
\\E7Undyne's the person I..^1.&Um..^1. really want to&go on a date with./                  gml_Object_obj_adate_Step_0.gml.lsp
But, I mean..^1.&She's way out of&my league./                                              gml_Object_obj_adate_Step_0.gml.lsp
\\E9N-not that you&aren't^1, um^1, cool!/                                                  gml_Object_obj_adate_Step_0.gml.lsp
\\E7B-but..^1. Undyne.../                                                                  gml_Object_obj_adate_Step_0.gml.lsp
She's so confident..^1.&And strong..^1.&And funny.../                                      gml_Object_obj_adate_Step_0.gml.lsp
\\E8And I'm just a&nobody./                                                                gml_Object_obj_adate_Step_0.gml.lsp
\\M3A fraud./                                                                              gml_Object_obj_adate_Step_0.gml.lsp
I'm the royal&scientist^1, but.../                                                         gml_Object_obj_adate_Step_0.gml.lsp
\\M0All I've ever done&is hurt people./                                                    gml_Object_obj_adate_Step_0.gml.lsp
\\E7I've told her so&many lies^1, she thinks&I'm.../                                       gml_Object_obj_adate_Step_0.gml.lsp
\\E6She thinks I'm a&lot cooler than I&actually am./                                       gml_Object_obj_adate_Step_0.gml.lsp
\\E7If she gets close&to me^1, she'll.../                                                  gml_Object_obj_adate_Step_0.gml.lsp
\\E8She'll find out the&truth about me./                                                   gml_Object_obj_adate_Step_0.gml.lsp
\\E7.../                                                                                   gml_Object_obj_adate_Step_0.gml.lsp
\\E7What should I do?/*                                                                    gml_Object_obj_adate_Step_0.gml.lsp
                              &   Tell her        Keep     &   the truth       lying       gml_Object_obj_adate_Step_0.gml.lsp
\\E9The truth...?/                                                                         gml_Object_obj_adate_Step_0.gml.lsp
\\M4But if I tell her&that^1, she'll hate&me./                                             gml_Object_obj_adate_Step_0.gml.lsp
\\E6I\\M0sn't it better&this way?/                                                         gml_Object_obj_adate_Step_0.gml.lsp
To live a lie where&both people are&happy.../                                              gml_Object_obj_adate_Step_0.gml.lsp
\\E7Or a truth where&neither of us&are?/                                                   gml_Object_obj_adate_Step_0.gml.lsp
They say \"be&yourself.\"/                                                                 gml_Object_obj_adate_Step_0.gml.lsp
\\E8But I don't&really like who&\"myself\" is./                                            gml_Object_obj_adate_Step_0.gml.lsp
\\E7I'd rather just&be whatever makes&people like me./                                     gml_Object_obj_adate_Step_0.gml.lsp
\\E6Eheheh.../                                                                             gml_Object_obj_adate_Step_0.gml.lsp
\\E7.../                                                                                   gml_Object_obj_adate_Step_0.gml.lsp
\\E8.../                                                                                   gml_Object_obj_adate_Step_0.gml.lsp
No, you're right./                                                                         gml_Object_obj_adate_Step_0.gml.lsp
Every day I'm&scared.../                                                                   gml_Object_obj_adate_Step_0.gml.lsp
\\E7Scared what will&happen if people&learn the truth&on their own./                       gml_Object_obj_adate_Step_0.gml.lsp
\\M3They'll all get&hurt because of&me.../                                                 gml_Object_obj_adate_Step_0.gml.lsp
\\E9B\\M4ut how can I&tell UNDYNE the&tr..^1. truth?/                                      gml_Object_obj_adate_Step_0.gml.lsp
\\E8I d-don't have the&confidence.../                                                      gml_Object_obj_adate_Step_0.gml.lsp
\\E9I'm going to mess&it up^1!&How can I&practice!?/%%                                     gml_Object_obj_adate_Step_0.gml.lsp
Yeah..^1. yeah^1, you're&right!/                                                           gml_Object_obj_adate_Step_0.gml.lsp
\\E6I\\M0've come this far^1,&I c-can't tell&her now!/                                     gml_Object_obj_adate_Step_0.gml.lsp
\\E7Sh-she'd be really&hurt if she found&out^1, right?/                                    gml_Object_obj_adate_Step_0.gml.lsp
\\E5S-so it'll just&be^1, uh^1, a little&secret!/                                          gml_Object_obj_adate_Step_0.gml.lsp
\\M1What people don't&know can't hurt&them!!/                                              gml_Object_obj_adate_Step_0.gml.lsp
\\M0Th-thank God I've&got an honest&friend like you!!/                                     gml_Object_obj_adate_Step_0.gml.lsp
.../                                                                                       gml_Object_obj_adate_Step_0.gml.lsp
\\E3.../                                                                                   gml_Object_obj_adate_Step_0.gml.lsp
\\M1B..^1. but what if she&finds out on her&own^1, somehow?/                               gml_Object_obj_adate_Step_0.gml.lsp
\\E7O\\M0r if I ever&m-mess up.../                                                         gml_Object_obj_adate_Step_0.gml.lsp
\\M4Sh-she'd find out&the truth^1, and.../                                                 gml_Object_obj_adate_Step_0.gml.lsp
\\E8Pr-probably be even&more hurt than if&I told her myself./                              gml_Object_obj_adate_Step_0.gml.lsp
\\E6N\\M0-not to mention^1,&l-lying so far..^1.&h..^1. has.../                             gml_Object_obj_adate_Step_0.gml.lsp
\\E8Been really&stressful^1, and scary./                                                   gml_Object_obj_adate_Step_0.gml.lsp
\\E3.../                                                                                   gml_Object_obj_adate_Step_0.gml.lsp
\\E4I think I'm going&to have to tell&her the truth./                                      gml_Object_obj_adate_Step_0.gml.lsp
\\E9B-but how!?/                                                                           gml_Object_obj_adate_Step_0.gml.lsp
\\E8I..^1. I don't have&the confidence.../                                                 gml_Object_obj_adate_Step_0.gml.lsp
\\E7How am I supposed&to practice&something like that!?/%%                                 gml_Object_obj_adate_Step_0.gml.lsp
   Let's           Obviously&   Roleplay        Let's    &   It              Roleplay      gml_Object_obj_adate_Step_0.gml.lsp
\\E4R..^1. roleplay?/                                                                      gml_Object_obj_adate_Step_0.gml.lsp
\\E3.../                                                                                   gml_Object_obj_adate_Step_0.gml.lsp
\\E5.\\M1.. That actually&sounds kind of&fun!/                                             gml_Object_obj_adate_Step_0.gml.lsp
\\M0OK^1, which one of&us will be Undyne?/*                                                gml_Object_obj_adate_Step_0.gml.lsp
                              &   I'll be         You'll be&   Undyne          Undyne      gml_Object_obj_adate_Step_0.gml.lsp
Oh^1. Right^1.&Obviously^1.&Ehehe./                                                        gml_Object_obj_adate_Step_0.gml.lsp
\\E2A\\M1hem./                                                                             gml_Object_obj_adate_Step_0.gml.lsp
\\E0H-hi\\M3 Undyne..^1.&H-how are you doing&today?/*                                      gml_Object_obj_adate_Step_0.gml.lsp
                              &   I'm fine.       YOur &                      cute,        gml_Object_obj_adate_Step_0.gml.lsp
\\E5Ha^1! Ha^1!&Glad to hear it!!/                                                         gml_Object_obj_adate_Step_0.gml.lsp
\\E3.../                                                                                   gml_Object_obj_adate_Step_0.gml.lsp
\\E4Uhhh^1, so I'd like&to^1, um^1, talk to&you about&something./%%                        gml_Object_obj_adate_Step_0.gml.lsp
\\E5Th..^1. thanks!/                                                                       gml_Object_obj_adate_Step_0.gml.lsp
\\E6You say that to me&a lot^1, and I&never know what&to say!!/                            gml_Object_obj_adate_Step_0.gml.lsp
\\E6But I know^1, you just^1,&mean it platonically^1,&because we're just&friends!/         gml_Object_obj_adate_Step_0.gml.lsp
\\M1Eheheh!!!/                                                                             gml_Object_obj_adate_Step_0.gml.lsp
\\E3.../                                                                                   gml_Object_obj_adate_Step_0.gml.lsp
\\E4Uhhh^1, so I'd like&to^1, um^1, talk to&you about&something./%%                        gml_Object_obj_adate_Step_0.gml.lsp
                              &   What is it,     THEN SHe&   Alphys.         Kisses YOu   gml_Object_obj_adate_Step_0.gml.lsp
\\E3Umm, you see..^1.&I..^1. I.../                                                         gml_Object_obj_adate_Step_0.gml.lsp
\\M3I..^1. I h-haven't been&exactly truthful&w-w-with you.../                              gml_Object_obj_adate_Step_0.gml.lsp
\\E4Y\\M4..^1. you see^1, I..^1. I.../                                                     gml_Object_obj_adate_Step_0.gml.lsp
\\E9Oh^1, forget it!/                                                                      gml_Object_obj_adate_Step_0.gml.lsp
\\M0Undyne!!!/                                                                             gml_Object_obj_adate_Step_0.gml.lsp
I..^1. I want to&tell you how I&feel!/                                                     gml_Object_obj_adate_Step_0.gml.lsp
\\M4Y-you're so brave^1,&a-and s-strong..^1.&A-and nice.../                                gml_Object_obj_adate_Step_0.gml.lsp
Y-you always listen&t-to me when I talk&about n-n-nerdy&stuff.../                          gml_Object_obj_adate_Step_0.gml.lsp
\\E0Y-you always d-d-do&your best to m-make&me f-f-feel&special.../                        gml_Object_obj_adate_Step_0.gml.lsp
\\E3L-like t-telling me&that y-you'll b-beat&up anyone that&g-gets in my way.../%%         gml_Object_obj_adate_Step_0.gml.lsp
\\E9WH-WHAT!?/                                                                             gml_Object_obj_adate_Step_0.gml.lsp
\\M1UNDYNE WOULD NEVER^1,&UH..../                                                          gml_Object_obj_adate_Step_0.gml.lsp
\\E3.../                                                                                   gml_Object_obj_adate_Step_0.gml.lsp
\\M0.../                                                                                   gml_Object_obj_adate_Step_0.gml.lsp
\\E4I kiss her back..^1.&S..^1. softly.../                                                 gml_Object_obj_adate_Step_0.gml.lsp
\\M4I..^1. l-look gently&into her eyes.../%%                                               gml_Object_obj_adate_Step_0.gml.lsp
UNDYNE!!!/                                                                                 gml_Object_obj_adate_Step_0.gml.lsp
I CAN'T TAKE THIS&ANY LONGER!!!/                                                           gml_Object_obj_adate_Step_0.gml.lsp
I'M MADLY IN LOVE&WITH YOU!!!/                                                             gml_Object_obj_adate_Step_0.gml.lsp
HOLD ME^1, UNDYNE!^1!&HOLD ME!!!/%%                                                        gml_Object_obj_adate_Step_0.gml.lsp
I START HOLLERING!!/                                                                       gml_Object_obj_adate_Step_0.gml.lsp
UNDYNE!!!^1!&I LOVE YOU!!!/                                                                gml_Object_obj_adate_Step_0.gml.lsp
UNDYNE!!^1!&KISS ME AGAIN^1,&UNDYNE!!!/%%                                                  gml_Object_obj_adate_Step_0.gml.lsp
\\E9M\\M0-m-me^1?&Undyne???/                                                               gml_Object_obj_adate_Step_0.gml.lsp
\\E7Uh^1, uh^1, uh^1, uh^1,&ok!/                                                           gml_Object_obj_adate_Step_0.gml.lsp
\\E6I'll say what I&think she'd say^1,&and you..^1. ummm..../                              gml_Object_obj_adate_Step_0.gml.lsp
\\E5You show me what&I'm supposed to do!/                                                  gml_Object_obj_adate_Step_0.gml.lsp
\\E2*\\M1ahem*/                                                                            gml_Object_obj_adate_Step_0.gml.lsp
\\E0N\\M2gahhhh!!^1!&Hey^1, Alphys!&You look cute&today!/                                  gml_Object_obj_adate_Step_0.gml.lsp
\\E5Which I say often^1!&But platonically&because I would&NEVER like you./*                gml_Object_obj_adate_Step_0.gml.lsp
   Hi Undyne!      Yo your&   Can we          one hot&   talk?           hotbaby           gml_Object_obj_adate_Step_0.gml.lsp
Talk^1, to you^1?&Hmmm..^1.&I guess so./                                                   gml_Object_obj_adate_Step_0.gml.lsp
I often seem&excited to listen&to you for some&reason./                                    gml_Object_obj_adate_Step_0.gml.lsp
\\E4I will make intent&eye contact with you&so you sweat while&you talk./                  gml_Object_obj_adate_Step_0.gml.lsp
\\E0So^1, what is it?/%%                                                                   gml_Object_obj_adate_Step_0.gml.lsp
What!^1?&A... alphys!?/                                                                    gml_Object_obj_adate_Step_0.gml.lsp
What's gotten into&you!?/                                                                  gml_Object_obj_adate_Step_0.gml.lsp
\\E9H\\M2-hotbaby!^1?&How dare you call&me that!?/                                         gml_Object_obj_adate_Step_0.gml.lsp
\\E5First off^1, I'm a&baby KNIGHT!/                                                       gml_Object_obj_adate_Step_0.gml.lsp
Captain of the&babies!!!/                                                                  gml_Object_obj_adate_Step_0.gml.lsp
Treat my position&with respect^1, or I&will strike you&down!/                              gml_Object_obj_adate_Step_0.gml.lsp
\\M3Uh^1, now pretend&I'm suplexing a&boulder for no&reason./                              gml_Object_obj_adate_Step_0.gml.lsp
\\E9U\\M0m^1! Anyway^1!&What do you&want to say^1,&Alphys!?/%%                             gml_Object_obj_adate_Step_0.gml.lsp
   Let's tell      Alphys&   Undyne the      gives u&   truth           a kiss,            gml_Object_obj_adate_Step_0.gml.lsp
What!?/                                                                                    gml_Object_obj_adate_Step_0.gml.lsp
So you've been&lying to me the&whole time.../                                              gml_Object_obj_adate_Step_0.gml.lsp
\\E7Alphys!!^1!&I can't believe you!/                                                      gml_Object_obj_adate_Step_0.gml.lsp
\\E8You w-worthless&slime!/                                                                gml_Object_obj_adate_Step_0.gml.lsp
\\E9How could you&betray our&friendship!!/                                                 gml_Object_obj_adate_Step_0.gml.lsp
\\E8After how much I&trusted you!!!/%%                                                     gml_Object_obj_adate_Step_0.gml.lsp
WH-WHAT!^1?&I WOULD NEVER.../                                                              gml_Object_obj_adate_Step_0.gml.lsp
\\M0Alphys^1!&What are you&d-doing!/                                                       gml_Object_obj_adate_Step_0.gml.lsp
I s-say^1, pushing&you away from&me.../                                                    gml_Object_obj_adate_Step_0.gml.lsp
\\E3You sh-shouldn't&k-kiss me...!!/                                                       gml_Object_obj_adate_Step_0.gml.lsp
\\E3.../                                                                                   gml_Object_obj_adate_Step_0.gml.lsp
\\E4.../                                                                                   gml_Object_obj_adate_Step_0.gml.lsp
\\E3B-but^1, y-you're so&good at it.../                                                    gml_Object_obj_adate_Step_0.gml.lsp
\\E5B-b-b-because of what&you learned from&th-those d-d-dating&video games.../             gml_Object_obj_adate_Step_0.gml.lsp
I...^1.&I c-c-can't help but&k-k-kiss you back.../%%                                       gml_Object_obj_adate_Step_0.gml.lsp
ALPHYS^1!&I'LL NEVER LOVE YOU!/                                                            gml_Object_obj_adate_Step_0.gml.lsp
NEVER WILL YOU FEEL&MY PASSIONATE&EMBRACE!!!/                                              gml_Object_obj_adate_Step_0.gml.lsp
I^1, UNDYNE^1, WILL&NEVER KISS YOU&WITH MY BEAUTIFUL&LIPS!!!/%%                            gml_Object_obj_adate_Step_0.gml.lsp
NGAHHHH!!^1!&NGAHHH!!!!/                                                                   gml_Object_obj_adate_Step_0.gml.lsp
I'M UNDYNE AND I'M&PILING ON THE&SMOOCHES!!!/%%                                            gml_Object_obj_adate_Step_0.gml.lsp
\\F3OH MY GOD!!!/                                                                          gml_Object_obj_adate_Step_0.gml.lsp
\\F5She was kidding^1,&right!? /                                                           gml_Object_obj_adate_Step_0.gml.lsp
Those cartoons..^1.&those comics.../                                                       gml_Object_obj_adate_Step_0.gml.lsp
\\F7Those are still&REAL^1, right!?/                                                       gml_Object_obj_adate_Step_0.gml.lsp
\\F8ANIME'S REAL^1,&RIGHT?!?!/%%                                                           gml_Object_obj_adate_Step_0.gml.lsp
   Anime is        Anime &   Real            is not &                   real               gml_Object_obj_adate_Step_0.gml.lsp
HA HA HA!!!/                                                                               gml_Object_obj_adate_Step_0.gml.lsp
I KNEW IT!!!/                                                                              gml_Object_obj_adate_Step_0.gml.lsp
GIGANTIC SWORDS!!^1!&MAGICAL PRINCESSES^1!&HERE I COME!!!/%%                               gml_Object_obj_adate_Step_0.gml.lsp
\\F3No..^1. NO!!!!/                                                                        gml_Object_obj_adate_Step_0.gml.lsp
I CAN FEEL MY&HEART BREAKING&INTO PIECES!!!/%%                                             gml_Object_obj_adate_Step_0.gml.lsp
\\F6.../                                                                                   gml_Object_obj_adate_Step_0.gml.lsp
Uhh^1, thanks for&taking care of&Alphys./                                                  gml_Object_obj_adate_Step_0.gml.lsp
\\F9I didn't get to&say what I wanted&to^1, but.../                                        gml_Object_obj_adate_Step_0.gml.lsp
\\F0Things seem like&they're going to get&better for her./                                 gml_Object_obj_adate_Step_0.gml.lsp
\\F6Well^1, I gotta go&catch up with&them!/                                                gml_Object_obj_adate_Step_0.gml.lsp
Later!/%%                                                                                  gml_Object_obj_adate_Step_0.gml.lsp
\\F3.../                                                                                   gml_Object_obj_adate_Step_0.gml.lsp
\\F5... no^1, I can&survive this.../                                                       gml_Object_obj_adate_Step_0.gml.lsp
\\F3I have to be strong./                                                                  gml_Object_obj_adate_Step_0.gml.lsp
\\F9For Alphys./                                                                           gml_Object_obj_adate_Step_0.gml.lsp
\\F0Thank you^1, human^1,&for telling me&the truth./                                       gml_Object_obj_adate_Step_0.gml.lsp
\\F9I'll try my best to&live in this&world.../                                             gml_Object_obj_adate_Step_0.gml.lsp
\\F0See you later!/%%                                                                      gml_Object_obj_adate_Step_0.gml.lsp
\\E0WOWIE!!^1!&I FEEL SO&INFORMED!!!/                                                      gml_Object_obj_adate_Step_0.gml.lsp
 %                                                                                         gml_Object_obj_adate_Step_0.gml.lsp
I THINK WE'RE&READY FOR STEP&TWO!!!/                                                       gml_Object_obj_adate_Step_0.gml.lsp
\\F4 \\E8 %                                                                                gml_Object_obj_adate_Step_0.gml.lsp
\"STEP TWO..^1.&ASK THEM&                                                                  gml_Object_obj_adate_Step_0.gml.lsp
ON A DATE.\"/"                                                                             gml_Object_obj_adate_Step_0.gml.lsp
TO HANG OUT.\"/"                                                                           gml_Object_obj_adate_Step_0.gml.lsp
\\E0A\\F0HEM!/                                                                             gml_Object_obj_adate_Step_0.gml.lsp
\\E1HUMAN^1!&I^1, THE GREAT&PAPYRUS.../                                                    gml_Object_obj_adate_Step_0.gml.lsp
WILL GO ON&A DATE WITH&YOU!!!/*                                                            gml_Object_obj_adate_Step_0.gml.lsp
WILL HANG OUT&WITH YOU!!!/*                                                                gml_Object_obj_adate_Step_0.gml.lsp
                              &   Yes             No       &                               gml_Object_obj_adate_Step_0.gml.lsp
